EESchema Schematic File Version 4
LIBS:Shunt-PSU1-cache
EELAYER 26 0
EELAYER END
$Descr A4 11693 8268
encoding utf-8
Sheet 1 1
Title "Shunt-PSU1"
Date "2019-05-26"
Rev "2.8"
Comp "T5! DIY Audio"
Comment1 ""
Comment2 ""
Comment3 ""
Comment4 ""
$EndDescr
Wire Wire Line
	3250 1900 3250 1550
Wire Wire Line
	4100 1550 4100 1900
Wire Wire Line
	3250 4700 3250 5050
Wire Wire Line
	4100 5050 4100 4700
$Comp
L Device:R R1
U 1 1 5C6EDD84
P 2900 2950
F 0 "R1" H 2970 2996 50  0000 L CNN
F 1 "Rsnub" H 2970 2905 50  0000 L CNN
F 2 "Resistor_THT:R_Axial_DIN0207_L6.3mm_D2.5mm_P10.16mm_Horizontal" V 2830 2950 50  0001 C CNN
F 3 "~" H 2900 2950 50  0001 C CNN
	1    2900 2950
	1    0    0    -1  
$EndComp
$Comp
L Device:C C2
U 1 1 5C6EDE7F
P 2900 3400
F 0 "C2" H 3015 3446 50  0000 L CNN
F 1 "150n" H 3015 3355 50  0000 L CNN
F 2 "Capacitor_THT:C_Rect_L18.0mm_W8.0mm_P15.00mm_FKS3_FKP3" H 2938 3250 50  0001 C CNN
F 3 "~" H 2900 3400 50  0001 C CNN
	1    2900 3400
	1    0    0    -1  
$EndComp
$Comp
L Device:C C1
U 1 1 5C6EDF48
P 2900 2050
F 0 "C1" H 3015 2096 50  0000 L CNN
F 1 "10n" H 3015 2005 50  0000 L CNN
F 2 "Capacitor_THT:C_Rect_L10.0mm_W3.0mm_P7.50mm_MKS4" H 2938 1900 50  0001 C CNN
F 3 "~" H 2900 2050 50  0001 C CNN
	1    2900 2050
	1    0    0    -1  
$EndComp
$Comp
L Device:C C4
U 1 1 5C6EDFB6
P 3700 2050
F 0 "C4" H 3815 2096 50  0000 L CNN
F 1 "10n" H 3815 2005 50  0000 L CNN
F 2 "Capacitor_THT:C_Rect_L10.0mm_W3.0mm_P7.50mm_MKS4" H 3738 1900 50  0001 C CNN
F 3 "~" H 3700 2050 50  0001 C CNN
	1    3700 2050
	1    0    0    -1  
$EndComp
$Comp
L Device:C C3
U 1 1 5C6EE004
P 2900 4550
F 0 "C3" H 3015 4596 50  0000 L CNN
F 1 "10n" H 3015 4505 50  0000 L CNN
F 2 "Capacitor_THT:C_Rect_L10.0mm_W3.0mm_P7.50mm_MKS4" H 2938 4400 50  0001 C CNN
F 3 "~" H 2900 4550 50  0001 C CNN
	1    2900 4550
	1    0    0    -1  
$EndComp
$Comp
L Device:C C5
U 1 1 5C6EE06C
P 3700 4550
F 0 "C5" H 3815 4596 50  0000 L CNN
F 1 "10n" H 3815 4505 50  0000 L CNN
F 2 "Capacitor_THT:C_Rect_L10.0mm_W3.0mm_P7.50mm_MKS4" H 3738 4400 50  0001 C CNN
F 3 "~" H 3700 4550 50  0001 C CNN
	1    3700 4550
	1    0    0    -1  
$EndComp
Wire Wire Line
	3250 1550 4100 1550
Wire Wire Line
	3250 5050 4100 5050
Wire Wire Line
	2900 2200 3250 2200
Wire Wire Line
	2900 1900 3250 1900
Wire Wire Line
	3700 1900 4100 1900
Wire Wire Line
	3700 2200 4100 2200
Wire Wire Line
	3700 4400 4100 4400
Wire Wire Line
	3700 4700 4100 4700
Wire Wire Line
	2900 4400 3250 4400
Wire Wire Line
	2900 4700 3250 4700
Connection ~ 2900 2500
Wire Wire Line
	2900 2500 4100 2500
Wire Wire Line
	2900 3250 2900 3100
$Comp
L Device:CP C6
U 1 1 5C6F0E0F
P 4500 3350
F 0 "C6" H 4618 3396 50  0000 L CNN
F 1 "10m" H 4618 3305 50  0000 L CNN
F 2 "T5_w11:CP_Radial_D30.0mm_P10.00mm_SnapIn_inlinePlusSign" H 4538 3200 50  0001 C CNN
F 3 "~" H 4500 3350 50  0001 C CNN
	1    4500 3350
	1    0    0    -1  
$EndComp
Wire Wire Line
	4500 3200 4500 1550
Wire Wire Line
	4500 3500 4500 5050
Wire Wire Line
	4100 1550 4500 1550
Wire Wire Line
	4100 5050 4500 5050
Wire Wire Line
	2900 2500 2900 2800
Wire Wire Line
	3250 2200 3250 3950
Wire Wire Line
	2900 3550 2900 3950
$Comp
L Device:R R2
U 1 1 5C6F5E4F
P 5750 2000
F 0 "R2" H 5820 2046 50  0000 L CNN
F 1 "6k8" H 5820 1955 50  0000 L CNN
F 2 "Resistor_THT:R_Axial_DIN0207_L6.3mm_D2.5mm_P10.16mm_Horizontal" V 5680 2000 50  0001 C CNN
F 3 "~" H 5750 2000 50  0001 C CNN
	1    5750 2000
	1    0    0    -1  
$EndComp
Wire Wire Line
	5750 1550 5750 1850
Connection ~ 4500 1550
$Comp
L Device:LED D5
U 1 1 5C6F6427
P 5750 4700
F 0 "D5" V 5788 4583 50  0000 R CNN
F 1 "LED gr" V 5697 4583 50  0000 R CNN
F 2 "LED_THT:LED_D3.0mm" H 5750 4700 50  0001 C CNN
F 3 "~" H 5750 4700 50  0001 C CNN
	1    5750 4700
	0    -1   -1   0   
$EndComp
Wire Wire Line
	5750 5050 5750 4850
Connection ~ 4500 5050
Wire Wire Line
	5750 4550 5750 4250
$Comp
L Transistor_BJT:BC546 Q1
U 1 1 5C6F7688
P 6200 4250
F 0 "Q1" H 6391 4296 50  0000 L CNN
F 1 "BC546C" H 6391 4205 50  0000 L CNN
F 2 "Package_TO_SOT_THT:TO-92L_Wide" H 6400 4175 50  0001 L CIN
F 3 "http://www.fairchildsemi.com/ds/BC/BC547.pdf" H 6200 4250 50  0001 L CNN
	1    6200 4250
	1    0    0    -1  
$EndComp
$Comp
L Device:R R3
U 1 1 5C6F773A
P 6300 4750
F 0 "R3" H 6370 4796 50  0000 L CNN
F 1 "330" H 6370 4705 50  0000 L CNN
F 2 "Resistor_THT:R_Axial_DIN0207_L6.3mm_D2.5mm_P10.16mm_Horizontal" V 6230 4750 50  0001 C CNN
F 3 "~" H 6300 4750 50  0001 C CNN
	1    6300 4750
	1    0    0    -1  
$EndComp
Wire Wire Line
	5750 5050 6300 5050
Wire Wire Line
	6300 5050 6300 4900
Wire Wire Line
	6300 4600 6300 4450
Wire Wire Line
	5750 4250 6000 4250
Connection ~ 5750 4250
Wire Wire Line
	5750 4250 5750 2150
$Comp
L Device:LED D6
U 1 1 5C6F89B8
P 6300 1800
F 0 "D6" V 6338 1683 50  0000 R CNN
F 1 "LED gr" V 6247 1683 50  0000 R CNN
F 2 "LED_THT:LED_D3.0mm" H 6300 1800 50  0001 C CNN
F 3 "~" H 6300 1800 50  0001 C CNN
	1    6300 1800
	0    -1   -1   0   
$EndComp
$Comp
L Device:LED D7
U 1 1 5C6F8A32
P 6300 2200
F 0 "D7" V 6338 2083 50  0000 R CNN
F 1 "LED gr" V 6247 2083 50  0000 R CNN
F 2 "LED_THT:LED_D3.0mm" H 6300 2200 50  0001 C CNN
F 3 "~" H 6300 2200 50  0001 C CNN
	1    6300 2200
	0    -1   -1   0   
$EndComp
$Comp
L Device:LED D8
U 1 1 5C6F8A72
P 6300 2600
F 0 "D8" V 6338 2483 50  0000 R CNN
F 1 "LED gr" V 6247 2483 50  0000 R CNN
F 2 "LED_THT:LED_D3.0mm" H 6300 2600 50  0001 C CNN
F 3 "~" H 6300 2600 50  0001 C CNN
	1    6300 2600
	0    -1   -1   0   
$EndComp
Wire Wire Line
	5750 1550 6300 1550
Wire Wire Line
	6300 1550 6300 1650
Wire Wire Line
	6300 1950 6300 2050
Wire Wire Line
	6300 2350 6300 2450
Wire Wire Line
	6300 2750 6300 2950
$Comp
L Device:C C9
U 1 1 5C6FB01E
P 6800 2250
F 0 "C9" H 6915 2296 50  0000 L CNN
F 1 "100n" H 6915 2205 50  0000 L CNN
F 2 "Capacitor_THT:C_Rect_L7.0mm_W2.5mm_P5.00mm" H 6838 2100 50  0001 C CNN
F 3 "~" H 6800 2250 50  0001 C CNN
	1    6800 2250
	1    0    0    -1  
$EndComp
Wire Wire Line
	6300 1550 6800 1550
Wire Wire Line
	6800 1550 6800 2100
Connection ~ 6300 1550
$Comp
L Device:R R4
U 1 1 5C6FB962
P 7350 1850
F 0 "R4" H 7420 1896 50  0000 L CNN
F 1 "4k7" H 7420 1805 50  0000 L CNN
F 2 "Resistor_THT:R_Axial_DIN0207_L6.3mm_D2.5mm_P10.16mm_Horizontal" V 7280 1850 50  0001 C CNN
F 3 "~" H 7350 1850 50  0001 C CNN
	1    7350 1850
	1    0    0    -1  
$EndComp
$Comp
L Device:R_POT_TRIM RV1
U 1 1 5C6FBA3B
P 7350 2250
F 0 "RV1" H 7280 2296 50  0000 R CNN
F 1 "2k2" H 7280 2205 50  0000 R CNN
F 2 "Potentiometer_THT:Potentiometer_Bourns_3296Y_Vertical" H 7350 2250 50  0001 C CNN
F 3 "~" H 7350 2250 50  0001 C CNN
	1    7350 2250
	1    0    0    -1  
$EndComp
$Comp
L Device:R R5
U 1 1 5C6FCC95
P 7350 2650
F 0 "R5" H 7420 2696 50  0000 L CNN
F 1 "1k" H 7420 2605 50  0000 L CNN
F 2 "Resistor_THT:R_Axial_DIN0207_L6.3mm_D2.5mm_P10.16mm_Horizontal" V 7280 2650 50  0001 C CNN
F 3 "~" H 7350 2650 50  0001 C CNN
	1    7350 2650
	1    0    0    -1  
$EndComp
Wire Wire Line
	6800 2400 6800 2950
Wire Wire Line
	6800 2950 6300 2950
Connection ~ 6300 2950
Wire Wire Line
	6300 2950 6300 4050
Wire Wire Line
	6800 2950 7350 2950
Wire Wire Line
	7350 2950 7350 2800
Connection ~ 6800 2950
Wire Wire Line
	7350 2500 7350 2400
Wire Wire Line
	7350 2100 7350 2000
Wire Wire Line
	6800 1550 7350 1550
Wire Wire Line
	7350 1550 7350 1700
Connection ~ 6800 1550
$Comp
L Device:R R6
U 1 1 5C700B89
P 7600 1550
F 0 "R6" V 7393 1550 50  0000 C CNN
F 1 "1R/3W" V 7484 1550 50  0000 C CNN
F 2 "Resistor_THT:R_Box_L26.0mm_W5.0mm_P20.00mm" V 7530 1550 50  0001 C CNN
F 3 "~" H 7600 1550 50  0001 C CNN
	1    7600 1550
	0    1    1    0   
$EndComp
Wire Wire Line
	7450 1550 7350 1550
Connection ~ 7350 1550
$Comp
L Transistor_FET:IRF9540N Q2
U 1 1 5C702590
P 8000 1650
F 0 "Q2" V 8343 1650 50  0000 C CNN
F 1 "IRF9540N" V 8252 1650 50  0000 C CNN
F 2 "Package_TO_SOT_THT:TO-220-3_Vertical" H 8200 1575 50  0001 L CIN
F 3 "http://www.irf.com/product-info/datasheets/data/irf9540n.pdf" H 8000 1650 50  0001 L CNN
	1    8000 1650
	0    1    -1   0   
$EndComp
Wire Wire Line
	7750 1550 7800 1550
Wire Wire Line
	7500 2250 8000 2250
Wire Wire Line
	8000 2250 8000 1850
$Comp
L Transistor_BJT:TIP122 Q3
U 1 1 5C70931E
P 8400 4400
F 0 "Q3" H 8606 4446 50  0000 L CNN
F 1 "TIP132" H 8606 4355 50  0000 L CNN
F 2 "Package_TO_SOT_THT:TO-220-3_Vertical" H 8600 4325 50  0001 L CIN
F 3 "http://www.fairchildsemi.com/ds/TI/TIP120.pdf" H 8400 4400 50  0001 L CNN
	1    8400 4400
	-1   0    0    -1  
$EndComp
Wire Wire Line
	6300 5050 8300 5050
Wire Wire Line
	8300 5050 8300 4600
Connection ~ 6300 5050
Wire Wire Line
	8300 4200 8300 1550
Wire Wire Line
	8300 1550 8200 1550
$Comp
L Device:R R7
U 1 1 5C70BEF7
P 8700 4750
F 0 "R7" H 8770 4796 50  0000 L CNN
F 1 "1k" H 8770 4705 50  0000 L CNN
F 2 "Resistor_THT:R_Axial_DIN0207_L6.3mm_D2.5mm_P10.16mm_Horizontal" V 8630 4750 50  0001 C CNN
F 3 "~" H 8700 4750 50  0001 C CNN
	1    8700 4750
	1    0    0    -1  
$EndComp
Wire Wire Line
	8300 5050 8700 5050
Wire Wire Line
	8700 5050 8700 4900
Connection ~ 8300 5050
Wire Wire Line
	8600 4400 8700 4400
Wire Wire Line
	8700 4400 8700 4600
$Comp
L Transistor_BJT:BC556 Q4
U 1 1 5C70DF39
P 8800 2900
F 0 "Q4" V 8990 2946 50  0000 L CNN
F 1 "BC556C" H 8990 2855 50  0000 L CNN
F 2 "Package_TO_SOT_THT:TO-92L_Wide" H 9000 2825 50  0001 L CIN
F 3 "http://www.fairchildsemi.com/ds/BC/BC557.pdf" H 8800 2900 50  0001 L CNN
	1    8800 2900
	-1   0    0    1   
$EndComp
$Comp
L Device:LED D9
U 1 1 5C70F0BD
P 8700 1900
F 0 "D9" V 8738 1783 50  0000 R CNN
F 1 "LED gr" V 8647 1783 50  0000 R CNN
F 2 "LED_THT:LED_D3.0mm" H 8700 1900 50  0001 C CNN
F 3 "~" H 8700 1900 50  0001 C CNN
	1    8700 1900
	0    -1   -1   0   
$EndComp
$Comp
L Device:C C10
U 1 1 5C70F14B
P 9200 1900
F 0 "C10" H 9315 1946 50  0000 L CNN
F 1 "100n" H 9315 1855 50  0000 L CNN
F 2 "Capacitor_THT:C_Rect_L7.0mm_W2.5mm_P5.00mm" H 9238 1750 50  0001 C CNN
F 3 "~" H 9200 1900 50  0001 C CNN
	1    9200 1900
	1    0    0    -1  
$EndComp
Wire Wire Line
	8300 1550 8700 1550
Wire Wire Line
	8700 1550 8700 1750
Connection ~ 8300 1550
Wire Wire Line
	8700 1550 9200 1550
Wire Wire Line
	9200 1550 9200 1750
Connection ~ 8700 1550
Wire Wire Line
	8700 2050 8700 2300
$Comp
L Device:R R8
U 1 1 5C71287D
P 9600 1800
F 0 "R8" H 9670 1846 50  0000 L CNN
F 1 "1k8" H 9670 1755 50  0000 L CNN
F 2 "Resistor_THT:R_Axial_DIN0207_L6.3mm_D2.5mm_P10.16mm_Horizontal" V 9530 1800 50  0001 C CNN
F 3 "~" H 9600 1800 50  0001 C CNN
	1    9600 1800
	1    0    0    -1  
$EndComp
$Comp
L Diode:1N4001 D10
U 1 1 5C7129BE
P 9600 2200
F 0 "D10" V 9646 2121 50  0000 R CNN
F 1 "1N4001" V 9555 2121 50  0000 R CNN
F 2 "Diode_THT:D_DO-41_SOD81_P10.16mm_Horizontal" H 9600 2025 50  0001 C CNN
F 3 "http://www.vishay.com/docs/88503/1n4001.pdf" H 9600 2200 50  0001 C CNN
	1    9600 2200
	0    -1   -1   0   
$EndComp
$Comp
L Diode:1N4001 D11
U 1 1 5C712AAF
P 9600 2500
F 0 "D11" V 9646 2421 50  0000 R CNN
F 1 "1N4001" V 9555 2421 50  0000 R CNN
F 2 "Diode_THT:D_DO-41_SOD81_P10.16mm_Horizontal" H 9600 2325 50  0001 C CNN
F 3 "http://www.vishay.com/docs/88503/1n4001.pdf" H 9600 2500 50  0001 C CNN
	1    9600 2500
	0    -1   -1   0   
$EndComp
Wire Wire Line
	9600 2050 9600 1950
Wire Wire Line
	9200 1550 9600 1550
Wire Wire Line
	9600 1550 9600 1650
Connection ~ 9200 1550
$Comp
L Device:R_POT_TRIM RV2
U 1 1 5C719315
P 9600 4200
F 0 "RV2" H 9530 4246 50  0000 R CNN
F 1 "47k" H 9530 4155 50  0000 R CNN
F 2 "Potentiometer_THT:Potentiometer_Bourns_3296Y_Vertical" H 9600 4200 50  0001 C CNN
F 3 "~" H 9600 4200 50  0001 C CNN
	1    9600 4200
	1    0    0    -1  
$EndComp
Wire Wire Line
	9600 3900 9800 3900
Wire Wire Line
	9800 3900 9800 4200
Wire Wire Line
	9800 4200 9750 4200
Wire Wire Line
	9600 3900 9600 4050
$Comp
L Device:R R9
U 1 1 5C71DA58
P 9600 4750
F 0 "R9" H 9670 4796 50  0000 L CNN
F 1 "330" H 9670 4705 50  0000 L CNN
F 2 "Resistor_THT:R_Axial_DIN0207_L6.3mm_D2.5mm_P10.16mm_Horizontal" V 9530 4750 50  0001 C CNN
F 3 "~" H 9600 4750 50  0001 C CNN
	1    9600 4750
	1    0    0    -1  
$EndComp
Wire Wire Line
	8700 5050 9600 5050
Wire Wire Line
	9600 5050 9600 4900
Connection ~ 8700 5050
Wire Wire Line
	9600 4600 9600 4350
$Comp
L Device:CP C11
U 1 1 5C72102F
P 10050 3450
F 0 "C11" H 10168 3496 50  0000 L CNN
F 1 "10m" H 10168 3405 50  0000 L CNN
F 2 "T5_w11:CP_Radial_D30.0mm_P10.00mm_SnapIn_inlinePlusSign" H 10088 3300 50  0001 C CNN
F 3 "~" H 10050 3450 50  0001 C CNN
	1    10050 3450
	1    0    0    -1  
$EndComp
$Comp
L Device:C C12
U 1 1 5C7210D3
P 10450 3450
F 0 "C12" H 10565 3496 50  0000 L CNN
F 1 "100n" H 10565 3405 50  0000 L CNN
F 2 "Capacitor_THT:C_Rect_L10.3mm_W4.5mm_P7.50mm_MKS4" H 10488 3300 50  0001 C CNN
F 3 "~" H 10450 3450 50  0001 C CNN
	1    10450 3450
	1    0    0    -1  
$EndComp
Wire Wire Line
	9600 5050 10050 5050
Wire Wire Line
	10050 5050 10050 3600
Connection ~ 9600 5050
Wire Wire Line
	10450 3600 10450 5050
Wire Wire Line
	10450 5050 10050 5050
Connection ~ 10050 5050
Wire Wire Line
	9600 1550 10050 1550
Wire Wire Line
	10050 1550 10050 3300
Connection ~ 9600 1550
Wire Wire Line
	10050 1550 10450 1550
Wire Wire Line
	10450 1550 10450 3300
Connection ~ 10050 1550
$Comp
L Connector:Screw_Terminal_01x02 J8
U 1 1 5C7287E5
P 11000 3400
F 0 "J8" H 10920 3075 50  0000 C CNN
F 1 "DC out" H 10920 3166 50  0000 C CNN
F 2 "TerminalBlock_Phoenix:TerminalBlock_Phoenix_MKDS-1,5-2-5.08_1x02_P5.08mm_Horizontal" H 11000 3400 50  0001 C CNN
F 3 "~" H 11000 3400 50  0001 C CNN
	1    11000 3400
	1    0    0    -1  
$EndComp
Wire Wire Line
	10450 5050 10800 5050
Connection ~ 10450 5050
Wire Wire Line
	10450 1550 10800 1550
Connection ~ 10450 1550
Wire Wire Line
	2900 3950 3250 3950
Connection ~ 2900 3950
Connection ~ 3250 3950
Wire Wire Line
	3250 3950 3250 4400
Connection ~ 9600 3900
Text Label 2650 2500 0    50   ~ 0
AC1
Text Label 2650 3950 0    50   ~ 0
AC2
Text Label 3250 1550 0    50   ~ 0
V+unreg
Text Label 8300 1550 0    50   ~ 0
V+reg
$Comp
L power:GND #PWR01
U 1 1 5C6EEE17
P 8300 5150
F 0 "#PWR01" H 8300 4900 50  0001 C CNN
F 1 "GND" H 8305 4977 50  0000 C CNN
F 2 "" H 8300 5150 50  0001 C CNN
F 3 "" H 8300 5150 50  0001 C CNN
	1    8300 5150
	1    0    0    -1  
$EndComp
Wire Wire Line
	8300 5150 8300 5050
Wire Wire Line
	9000 2900 9600 2900
Wire Wire Line
	8700 2300 9200 2300
Wire Wire Line
	9200 2300 9200 2050
$Comp
L Device:CP C8
U 1 1 5C6F244C
P 5400 3350
F 0 "C8" H 5518 3396 50  0000 L CNN
F 1 "10m" H 5518 3305 50  0000 L CNN
F 2 "T5_w11:CP_Radial_D30.0mm_P10.00mm_SnapIn_inlinePlusSign" H 5438 3200 50  0001 C CNN
F 3 "~" H 5400 3350 50  0001 C CNN
	1    5400 3350
	1    0    0    -1  
$EndComp
$Comp
L Device:CP C7
U 1 1 5C6F24D2
P 4950 3350
F 0 "C7" H 5068 3396 50  0000 L CNN
F 1 "10m" H 5068 3305 50  0000 L CNN
F 2 "T5_w11:CP_Radial_D30.0mm_P10.00mm_SnapIn_inlinePlusSign" H 4988 3200 50  0001 C CNN
F 3 "~" H 4950 3350 50  0001 C CNN
	1    4950 3350
	1    0    0    -1  
$EndComp
Wire Wire Line
	4500 1550 4950 1550
Connection ~ 5750 1550
Wire Wire Line
	4500 5050 4950 5050
Connection ~ 5750 5050
Wire Wire Line
	4950 3500 4950 5050
Connection ~ 4950 5050
Wire Wire Line
	4950 5050 5400 5050
Wire Wire Line
	5400 3500 5400 5050
Connection ~ 5400 5050
Wire Wire Line
	5400 5050 5750 5050
Wire Wire Line
	4950 3200 4950 1550
Connection ~ 4950 1550
Wire Wire Line
	4950 1550 5400 1550
Wire Wire Line
	5400 3200 5400 1550
Connection ~ 5400 1550
Wire Wire Line
	5400 1550 5750 1550
Wire Wire Line
	10800 3500 10800 5050
Wire Wire Line
	10800 3400 10800 1550
$Comp
L ose-audio-labs:TRANSFO_DUAL-DUAL T1
U 1 1 5C7C6EDD
P 1500 3200
F 0 "T1" H 1500 3828 50  0000 C CNN
F 1 "Trafo Dual/Dual" H 1500 3737 50  0000 C CNN
F 2 "ose-audio-labs:TALEMA_70000K_15-25VA" H 1500 3450 50  0001 C CNN
F 3 "" H 1500 3450 50  0000 C CNN
	1    1500 3200
	1    0    0    -1  
$EndComp
Wire Wire Line
	950  3700 1100 3700
Wire Wire Line
	950  2750 1100 2750
Wire Wire Line
	1100 3150 1100 3300
Wire Wire Line
	1900 2750 2050 2750
Wire Wire Line
	2050 2750 2050 2500
Wire Wire Line
	2050 2500 2900 2500
Wire Wire Line
	2050 3950 2050 3700
Wire Wire Line
	2050 3700 1900 3700
Wire Wire Line
	2050 3950 2900 3950
$Comp
L Connector_Generic:Conn_02x02_Odd_Even J7
U 1 1 5C7EA13B
P 2200 3200
F 0 "J7" H 2250 3417 50  0000 C CNN
F 1 "Conn_2x2" H 2250 3326 50  0000 C CNN
F 2 "Connector_PinHeader_2.54mm:PinHeader_2x02_P2.54mm_Vertical" H 2200 3200 50  0001 C CNN
F 3 "~" H 2200 3200 50  0001 C CNN
	1    2200 3200
	1    0    0    -1  
$EndComp
Wire Wire Line
	1900 3150 2000 3150
Wire Wire Line
	2000 3150 2000 3200
Wire Wire Line
	1900 3300 2000 3300
Wire Wire Line
	2050 2750 2700 2750
Wire Wire Line
	2700 2750 2700 3300
Wire Wire Line
	2700 3300 2500 3300
Connection ~ 2050 2750
Wire Wire Line
	2500 3200 2600 3200
Wire Wire Line
	2600 3200 2600 3700
Wire Wire Line
	2600 3700 2050 3700
Connection ~ 2050 3700
$Comp
L Connector_Generic:Conn_01x01 J2
U 1 1 5C7FB601
P 1450 5400
F 0 "J2" H 1530 5442 50  0000 L CNN
F 1 "Hole" H 1530 5351 50  0000 L CNN
F 2 "MountingHole:MountingHole_3.2mm_M3" H 1450 5400 50  0001 C CNN
F 3 "~" H 1450 5400 50  0001 C CNN
	1    1450 5400
	1    0    0    -1  
$EndComp
$Comp
L Connector_Generic:Conn_01x01 J3
U 1 1 5C7FB962
P 1450 5600
F 0 "J3" H 1530 5642 50  0000 L CNN
F 1 "Hole" H 1530 5551 50  0000 L CNN
F 2 "MountingHole:MountingHole_3.2mm_M3" H 1450 5600 50  0001 C CNN
F 3 "~" H 1450 5600 50  0001 C CNN
	1    1450 5600
	1    0    0    -1  
$EndComp
$Comp
L Connector_Generic:Conn_01x01 J4
U 1 1 5C7FB9CE
P 1450 5800
F 0 "J4" H 1530 5842 50  0000 L CNN
F 1 "Hole" H 1530 5751 50  0000 L CNN
F 2 "MountingHole:MountingHole_3.2mm_M3" H 1450 5800 50  0001 C CNN
F 3 "~" H 1450 5800 50  0001 C CNN
	1    1450 5800
	1    0    0    -1  
$EndComp
$Comp
L Connector_Generic:Conn_01x01 J5
U 1 1 5C7FBA40
P 1450 6000
F 0 "J5" H 1530 6042 50  0000 L CNN
F 1 "Hole" H 1530 5951 50  0000 L CNN
F 2 "MountingHole:MountingHole_3.2mm_M3" H 1450 6000 50  0001 C CNN
F 3 "~" H 1450 6000 50  0001 C CNN
	1    1450 6000
	1    0    0    -1  
$EndComp
$Comp
L t-5:MUR8100 D1
U 1 1 5C7C6BB2
P 3250 2050
F 0 "D1" V 3204 2129 50  0000 L CNN
F 1 "MUR8100" V 3295 2129 50  0000 L CNN
F 2 "Package_TO_SOT_THT:TO-220-2_Vertical" H 3250 1875 50  0001 C CNN
F 3 "https://www.onsemi.com/pub/Collateral/MUR8100E-D.PDF" H 3250 2050 50  0001 C CNN
	1    3250 2050
	0    1    1    0   
$EndComp
Connection ~ 3250 1900
Connection ~ 3250 2200
$Comp
L t-5:MUR8100 D3
U 1 1 5C7C6C8A
P 4100 2050
F 0 "D3" V 4054 2129 50  0000 L CNN
F 1 "MUR8100" V 4145 2129 50  0000 L CNN
F 2 "Package_TO_SOT_THT:TO-220-2_Vertical" H 4100 1875 50  0001 C CNN
F 3 "https://www.onsemi.com/pub/Collateral/MUR8100E-D.PDF" H 4100 2050 50  0001 C CNN
	1    4100 2050
	0    1    1    0   
$EndComp
Connection ~ 4100 1900
Connection ~ 4100 2200
$Comp
L t-5:MUR8100 D2
U 1 1 5C7C6D0C
P 3250 4550
F 0 "D2" V 3204 4629 50  0000 L CNN
F 1 "MUR8100" V 3295 4629 50  0000 L CNN
F 2 "Package_TO_SOT_THT:TO-220-2_Vertical" H 3250 4375 50  0001 C CNN
F 3 "https://www.onsemi.com/pub/Collateral/MUR8100E-D.PDF" H 3250 4550 50  0001 C CNN
	1    3250 4550
	0    1    1    0   
$EndComp
Connection ~ 3250 4400
Connection ~ 3250 4700
$Comp
L t-5:MUR8100 D4
U 1 1 5C7C6D9E
P 4100 4550
F 0 "D4" V 4054 4629 50  0000 L CNN
F 1 "MUR8100" V 4145 4629 50  0000 L CNN
F 2 "Package_TO_SOT_THT:TO-220-2_Vertical" H 4100 4375 50  0001 C CNN
F 3 "https://www.onsemi.com/pub/Collateral/MUR8100E-D.PDF" H 4100 4550 50  0001 C CNN
	1    4100 4550
	0    1    1    0   
$EndComp
Connection ~ 4100 4400
Connection ~ 4100 4700
$Comp
L Connector:Screw_Terminal_01x03 J1
U 1 1 5C7C7632
P 750 3250
F 0 "J1" H 670 2925 50  0000 C CNN
F 1 "AC in" H 670 3016 50  0000 C CNN
F 2 "TerminalBlock_Phoenix:TerminalBlock_Phoenix_MKDS-1,5-3-5.08_1x03_P5.08mm_Horizontal" H 750 3250 50  0001 C CNN
F 3 "~" H 750 3250 50  0001 C CNN
	1    750  3250
	-1   0    0    1   
$EndComp
Wire Wire Line
	950  3150 950  2750
Wire Wire Line
	950  3350 950  3700
$Comp
L Connector_Generic:Conn_01x01 J6
U 1 1 5C7D012E
P 1450 6200
F 0 "J6" H 1530 6242 50  0000 L CNN
F 1 "Logo" H 1530 6151 50  0000 L CNN
F 2 "T5_w11:T5_w11" H 1450 6200 50  0001 C CNN
F 3 "~" H 1450 6200 50  0001 C CNN
	1    1450 6200
	1    0    0    -1  
$EndComp
Connection ~ 9600 2900
Wire Wire Line
	9600 2900 9600 3900
Wire Wire Line
	9600 2650 9600 2900
Wire Wire Line
	8700 2700 8700 2300
Connection ~ 8700 2300
Wire Wire Line
	8700 4400 8700 3100
Connection ~ 8700 4400
Wire Wire Line
	4100 2500 4100 4400
Wire Wire Line
	4100 2200 4100 2500
Connection ~ 4100 2500
Connection ~ 4100 5050
Connection ~ 4100 1550
$EndSCHEMATC
